Copyright 1986-2019 Xilinx, Inc. All Rights Reserved.
------------------------------------------------------------------------------------------------------------------------------------------
| Tool Version : Vivado v.2019.1 (win64) Build 2552052 Fri May 24 14:49:42 MDT 2019
| Date         : Mon Jun  8 00:44:21 2020
| Host         : DESKTOPAEV67KM running 64-bit major release  (build 9200)
| Command      : report_drc -file design_1_wrapper_drc_routed.rpt -pb design_1_wrapper_drc_routed.pb -rpx design_1_wrapper_drc_routed.rpx
| Design       : design_1_wrapper
| Device       : xc7a100tfgg484-1
| Speed File   : -1
| Design State : Fully Routed
------------------------------------------------------------------------------------------------------------------------------------------

Report DRC

Table of Contents
-----------------
1. REPORT SUMMARY
2. REPORT DETAILS

1. REPORT SUMMARY
-----------------
            Netlist: netlist
          Floorplan: design_1
      Design limits: <entire design considered>
           Ruledeck: default
             Max violations: <unlimited>
             Violations found: 11
+-------------+----------+-------------------------------------------------------------+------------+
| Rule        | Severity | Description                                                 | Violations |
+-------------+----------+-------------------------------------------------------------+------------+
| BUFC-1      | Warning  | Input Buffer Connections                                    | 2          |
| CFGBVS-1    | Warning  | Missing CFGBVS and CONFIG_VOLTAGE Design Properties         | 1          |
| PDRC-153    | Warning  | Gated clock check                                           | 3          |
| PLHOLDVIO-2 | Warning  | Non-Optimal connections which could lead to hold violations | 3          |
| REQP-1709   | Warning  | Clock output buffering                                      | 1          |
| RTSTAT-10   | Warning  | No routable loads                                           | 1          |
+-------------+----------+-------------------------------------------------------------+------------+

2. REPORT DETAILS
-----------------
BUFC-1#1 Warning
Input Buffer Connections  
Input buffer design_1_i/mig_7series_0/u_design_1_mig_7series_0_0_mig/u_memc_ui_top_axi/mem_intfc0/ddr_phy_top0/u_ddr_mc_phy_wrapper/gen_dqs_iobuf_HR.gen_dqs_iobuf[0].gen_dqs_diff.u_iobuf_dqs/IBUFDS_0 (in design_1_i/mig_7series_0/u_design_1_mig_7series_0_0_mig/u_memc_ui_top_axi/mem_intfc0/ddr_phy_top0/u_ddr_mc_phy_wrapper/gen_dqs_iobuf_HR.gen_dqs_iobuf[0].gen_dqs_diff.u_iobuf_dqs macro) has no loads. It is recommended to have an input buffer drive an internal load.
Related violations: <none>

BUFC-1#2 Warning
Input Buffer Connections  
Input buffer design_1_i/mig_7series_0/u_design_1_mig_7series_0_0_mig/u_memc_ui_top_axi/mem_intfc0/ddr_phy_top0/u_ddr_mc_phy_wrapper/gen_dqs_iobuf_HR.gen_dqs_iobuf[1].gen_dqs_diff.u_iobuf_dqs/IBUFDS_0 (in design_1_i/mig_7series_0/u_design_1_mig_7series_0_0_mig/u_memc_ui_top_axi/mem_intfc0/ddr_phy_top0/u_ddr_mc_phy_wrapper/gen_dqs_iobuf_HR.gen_dqs_iobuf[1].gen_dqs_diff.u_iobuf_dqs macro) has no loads. It is recommended to have an input buffer drive an internal load.
Related violations: <none>

CFGBVS-1#1 Warning
Missing CFGBVS and CONFIG_VOLTAGE Design Properties  
Neither the CFGBVS nor CONFIG_VOLTAGE voltage property is set in the current_design.  Configuration bank voltage select (CFGBVS) must be set to VCCO or GND, and CONFIG_VOLTAGE must be set to the correct configuration voltage, in order to determine the I/O voltage support for the pins in bank 0.  It is suggested to specify these either using the 'Edit Device Properties' function in the GUI or directly in the XDC file using the following syntax:

 set_property CFGBVS value1 [current_design]
 #where value1 is either VCCO or GND

 set_property CONFIG_VOLTAGE value2 [current_design]
 #where value2 is the voltage provided to configuration bank 0

Refer to the device configuration user guide for more information.
Related violations: <none>

PDRC-153#1 Warning
Gated clock check  
Net design_1_i/ADC_imitation_0/inst/clk_100Mhz_AXI_send is a gated clock net sourced by a combinational pin design_1_i/ADC_imitation_0/inst/clk_100Mhz_AXI_send_INST_0/O, cell design_1_i/ADC_imitation_0/inst/clk_100Mhz_AXI_send_INST_0. This is not good design practice and will likely impact performance. For SLICE registers, for example, use the CE pin to control the loading of data.
Related violations: <none>

PDRC-153#2 Warning
Gated clock check  
Net design_1_i/ADC_imitation_0/inst/clk_5MHzWR_100MhzRD is a gated clock net sourced by a combinational pin design_1_i/ADC_imitation_0/inst/clk_5MHzWR_100MhzRD_INST_0/O, cell design_1_i/ADC_imitation_0/inst/clk_5MHzWR_100MhzRD_INST_0. This is not good design practice and will likely impact performance. For SLICE registers, for example, use the CE pin to control the loading of data.
Related violations: <none>

PDRC-153#3 Warning
Gated clock check  
Net design_1_i/ADC_imitation_0/inst/count_clk04_out is a gated clock net sourced by a combinational pin design_1_i/ADC_imitation_0/inst/count_clk[31]_i_2/O, cell design_1_i/ADC_imitation_0/inst/count_clk[31]_i_2. This is not good design practice and will likely impact performance. For SLICE registers, for example, use the CE pin to control the loading of data.
Related violations: <none>

PLHOLDVIO-2#1 Warning
Non-Optimal connections which could lead to hold violations  
A LUT design_1_i/ADC_imitation_0/inst/clk_100Mhz_AXI_send_INST_0 is driving clock pin of 48 cells. This could lead to large hold time violations. Involved cells are:
design_1_i/sampleGenerator_0/inst/samplGeneraror_v1_0_M00_AXIS_inst/M_AXIS_TDATA_reg[0], design_1_i/sampleGenerator_0/inst/samplGeneraror_v1_0_M00_AXIS_inst/M_AXIS_TDATA_reg[10], design_1_i/sampleGenerator_0/inst/samplGeneraror_v1_0_M00_AXIS_inst/M_AXIS_TDATA_reg[11], design_1_i/sampleGenerator_0/inst/samplGeneraror_v1_0_M00_AXIS_inst/M_AXIS_TDATA_reg[12], design_1_i/sampleGenerator_0/inst/samplGeneraror_v1_0_M00_AXIS_inst/M_AXIS_TDATA_reg[13], design_1_i/sampleGenerator_0/inst/samplGeneraror_v1_0_M00_AXIS_inst/M_AXIS_TDATA_reg[14], design_1_i/sampleGenerator_0/inst/samplGeneraror_v1_0_M00_AXIS_inst/M_AXIS_TDATA_reg[15], design_1_i/sampleGenerator_0/inst/samplGeneraror_v1_0_M00_AXIS_inst/M_AXIS_TDATA_reg[16], design_1_i/sampleGenerator_0/inst/samplGeneraror_v1_0_M00_AXIS_inst/M_AXIS_TDATA_reg[17], design_1_i/sampleGenerator_0/inst/samplGeneraror_v1_0_M00_AXIS_inst/M_AXIS_TDATA_reg[18], design_1_i/sampleGenerator_0/inst/samplGeneraror_v1_0_M00_AXIS_inst/M_AXIS_TDATA_reg[19], design_1_i/sampleGenerator_0/inst/samplGeneraror_v1_0_M00_AXIS_inst/M_AXIS_TDATA_reg[1], design_1_i/sampleGenerator_0/inst/samplGeneraror_v1_0_M00_AXIS_inst/M_AXIS_TDATA_reg[20], design_1_i/sampleGenerator_0/inst/samplGeneraror_v1_0_M00_AXIS_inst/M_AXIS_TDATA_reg[21], design_1_i/sampleGenerator_0/inst/samplGeneraror_v1_0_M00_AXIS_inst/M_AXIS_TDATA_reg[22] (the first 15 of 48 listed)
Related violations: <none>

PLHOLDVIO-2#2 Warning
Non-Optimal connections which could lead to hold violations  
A LUT design_1_i/ADC_imitation_0/inst/clk_5MHzWR_100MhzRD_INST_0 is driving clock pin of 8 cells. This could lead to large hold time violations. Involved cells are:
design_1_i/ram_0/inst/memory_array_reg_0, design_1_i/ram_0/inst/memory_array_reg_1, design_1_i/ram_0/inst/memory_array_reg_2, design_1_i/ram_0/inst/memory_array_reg_3, design_1_i/ram_0/inst/memory_array_reg_4, design_1_i/ram_0/inst/memory_array_reg_5, design_1_i/ram_0/inst/memory_array_reg_6, design_1_i/ram_0/inst/memory_array_reg_7
Related violations: <none>

PLHOLDVIO-2#3 Warning
Non-Optimal connections which could lead to hold violations  
A LUT design_1_i/ADC_imitation_0/inst/count_clk[31]_i_2 is driving clock pin of 34 cells. This could lead to large hold time violations. Involved cells are:
design_1_i/ADC_imitation_0/inst/FLAG_state_reg, design_1_i/ADC_imitation_0/inst/count_clk_reg[0], design_1_i/ADC_imitation_0/inst/count_clk_reg[10], design_1_i/ADC_imitation_0/inst/count_clk_reg[11], design_1_i/ADC_imitation_0/inst/count_clk_reg[12], design_1_i/ADC_imitation_0/inst/count_clk_reg[13], design_1_i/ADC_imitation_0/inst/count_clk_reg[14], design_1_i/ADC_imitation_0/inst/count_clk_reg[15], design_1_i/ADC_imitation_0/inst/count_clk_reg[16], design_1_i/ADC_imitation_0/inst/count_clk_reg[17], design_1_i/ADC_imitation_0/inst/count_clk_reg[18], design_1_i/ADC_imitation_0/inst/count_clk_reg[19], design_1_i/ADC_imitation_0/inst/count_clk_reg[1], design_1_i/ADC_imitation_0/inst/count_clk_reg[20], design_1_i/ADC_imitation_0/inst/count_clk_reg[21] (the first 15 of 34 listed)
Related violations: <none>

REQP-1709#1 Warning
Clock output buffering  
PLLE2_ADV connectivity violation. The signal design_1_i/mig_7series_0/u_design_1_mig_7series_0_0_mig/u_ddr3_infrastructure/pll_clk3_out on the design_1_i/mig_7series_0/u_design_1_mig_7series_0_0_mig/u_ddr3_infrastructure/plle2_i/CLKOUT3 pin of design_1_i/mig_7series_0/u_design_1_mig_7series_0_0_mig/u_ddr3_infrastructure/plle2_i does not drive the same kind of BUFFER load as the other CLKOUT pins. Routing from the different buffer types will not be phase aligned.
Related violations: <none>

RTSTAT-10#1 Warning
No routable loads  
2 net(s) have no routable loads. The problem bus(es) and/or net(s) are design_1_i/smartconnect_0/inst/m00_nodes/m00_b_node/inst/s_sc_areset, design_1_i/smartconnect_0/inst/m00_nodes/m00_r_node/inst/s_sc_areset.
Related violations: <none>


